[
    {"status":false, "title":"Persistent coughing, breathlessness, coughing blood"},
    {"status":false, "title":"Chest pain, palpitations"},
    {"status":false, "title":"Indigestion, nausea, heartburn"},
    {"status":false, "title":"Diarrhoea, constipation, blood in stool, black colour stool"},
    {"status":false, "title":"Loss of weight, loss of appetite"},
    {"status":false, "title":"Urinary problems: Pain on passing urine, increase frequency of urine, abnormal colour urine, unable to hold urine, poor flow of urine"},
    {"status":false, "title":"Skin problem: new moles, rash, psoriasis, acne"},
    {"status":false, "title":"Weakness of limbs"},
    {"status":false, "title":"Headache, dizziness, fainting, spells"},
    {"status":false, "title":"Mood changes, insomnia, anxiety, stress" },
    {"status":false, "title":"Eyes: blurred vision, double vision, field of vision"},
    {"status":false, "title":"Ears: reduced hearing, ringing sounds"},
    {"status":false, "title":"Abnormal lumps noticed"},
    {"status":false, "title":"Musculoskeletal: muscle pain, joint pain, back pain, neck pain"},
    {"status":false, "title":"Menstrual: irregular, heavy, spotting, vaginal discharge"},
    {"status":false, "title":"Please tick if you are currently pregnant"}

]