[
    {"Address":"Massachusetts,Von Lodge,Suite 232","About":"Maiores atque vitae quo soluta illo saepe numquam. Reiciendis minima facere ipsa eveniet ut. Qui et mollitia saepe ipsa dignissimos voluptatem quo reprehenderit cumque. Voluptatem nisi rerum et dolorem alias facere dolores velit occaecati. Eum reiciendis nobis culpa. Iure quia illum laboriosam.","contact":8052352039369,"name":"Keeling Kihn","department":"Program","distance":0.9,
    "coordinates":{"latitude":37.7526906,"longitude":-122.4328102}
    },
    {"Address":"Virginia,Gilberto Divide,Suite 429","About":"Ipsam ab consequatur ipsum explicabo est. Sed voluptas odio molestias quos qui quibusdam amet et dolorem. Ipsum magnam voluptatem assumenda alias ipsa ducimus pariatur.","contact":46064788702067,"name":"Cassin, Littel","department":"cross-platform","distance":0.8,
        "coordinates":{"latitude":37.746877,"longitude":-122.4352519}
    },
    {"Address":"Oklahoma,Sabryna Squares,Suite 196","About":"Cupiditate distinctio sit eligendi blanditiis. Et voluptatibus ea sed error dignissimos illo nihil. Non et possimus quos ut quasi doloremque voluptatum.","contact":7631469306197,"name":"Pouros - Adams","department":"Intelligent","distance":0.4,
        "coordinates":{"latitude":37.746877,"longitude":-122.4352519}
    },
    {"Address":"Utah,Von Courts,Suite 219","About":"Odit fuga assumenda ipsa. Quia a nulla error sit. Veniam et vitae optio numquam quibusdam dolore nihil. Corrupti pariatur mollitia sint.","contact":8381829538,"name":"Connelly Group","department":"Kwacha","distance":0.9,
        "coordinates":{"latitude":37.7411404,"longitude":-122.4442556}
    },
    {"Address":"Missouri,Kunze Key,Suite 020","About":"Nemo velit ratione. Eligendi iusto ipsum repellat. Id quis praesentium est impedit ea. Molestiae quisquam mollitia nihil ea quis excepturi distinctio minima et.","contact":7158876341416,"name":"Lueilwitz","department":"Myanmar","distance":0.5,
        "coordinates":{"latitude":37.7164003,"longitude":-122.4240721}
    },
    {"Address":"North Carolina,Salvador Extensions,Apt. 757","About":"Molestiae qui fugit distinctio sit et repellat perspiciatis fuga enim. Quas nulla doloribus voluptatum omnis sed modi soluta. Qui voluptates aut voluptate et eaque. Neque molestias repudiandae. Qui quidem porro animi laborum.","contact":1449985381032,"name":"Gerhold","department":"encoding","distance":0.9,
        "coordinates":{"latitude":37.7197862,"longitude":-122.458635}
    },
    {"Address":"Mississippi,Towne Turnpike,Apt. 031","About":"Odit illo ut dolorum ab maxime neque dolor. Omnis labore ut rem iusto placeat sed ut dicta unde. Quos est aut explicabo perferendis. Fugit ullam commodi amet non voluptatum. Fugit sit neque pariatur. Voluptas mollitia sed et quo qui.","contact":2947270777,"name":"O'Kon LLC","department":"Checking","distance":0.9,
        "coordinates":{"latitude":37.7502265,"longitude":-122.477384}
    },
    {"Address":"Oklahoma,Hermiston Way,Suite 483","About":"Sed itaque quo et suscipit nihil pariatur blanditiis. Voluptatem commodi repudiandae dolores veritatis laudantium occaecati fugiat voluptatibus. Quaerat impedit esse nesciunt veritatis. Enim omnis tenetur et. Et pariatur laborum est porro consectetur perspiciatis quam reprehenderit ad.","contact":3862749858495,"name":"Williamson","department":"drive","distance":0.1,
        "coordinates":{"latitude":37.7162701,"longitude":-122.431794}
    }
    

]