[
    {
        "image":"https://upload.wikimedia.org/wikipedia/commons/7/7c/Profile_avatar_placeholder_large.png",
        "name":"May Hampton",
        "specialization":"Cardeologist",
        "distance":"0.8",
        "rating":"5.0"
    },

    {
        "image":"https://upload.wikimedia.org/wikipedia/commons/7/7c/Profile_avatar_placeholder_large.png",
        "name":"Jose Holland",
        "specialization":"Pediatrician",
        "distance":"0.8",
        "rating":"5.0"
    },

    {
        "image":"https://upload.wikimedia.org/wikipedia/commons/7/7c/Profile_avatar_placeholder_large.png",
        "name":"Fannie Larson",
        "specialization":"Gynecological",
        "distance":"0.8",
        "rating":"5.0"
    },

    {
        "image":"https://upload.wikimedia.org/wikipedia/commons/7/7c/Profile_avatar_placeholder_large.png",
        "name":"Della Jenson",
        "specialization":"Cardeologist",
        "distance":"0.8",
        "rating":"5.0"
    },
    
    {
        "image":"https://upload.wikimedia.org/wikipedia/commons/7/7c/Profile_avatar_placeholder_large.png",
        "name":"May Hampton",
        "specialization":"Cardeologist",
        "distance":"0.8",
        "rating":"5.0"
    },

    {
        "image":"https://upload.wikimedia.org/wikipedia/commons/7/7c/Profile_avatar_placeholder_large.png",
        "name":"May Hampton",
        "specialization":"Cardeologist",
        "distance":"0.8",
        "rating":"5.0"
    },

    {
        "image":"https://upload.wikimedia.org/wikipedia/commons/7/7c/Profile_avatar_placeholder_large.png",
        "name":"May Hampton",
        "specialization":"Cardeologist",
        "distance":"0.8",
        "rating":"5.0"
    },

    {
        "image":"https://upload.wikimedia.org/wikipedia/commons/7/7c/Profile_avatar_placeholder_large.png",
        "name":"May Hampton",
        "specialization":"Cardeologist",
        "distance":"0.8",
        "rating":"5.0"
    },

    {
        "image":"https://upload.wikimedia.org/wikipedia/commons/7/7c/Profile_avatar_placeholder_large.png",
        "name":"May Hampton",
        "specialization":"Cardeologist",
        "distance":"0.8",
        "rating":"5.0"
    },

    {
        "image":"https://upload.wikimedia.org/wikipedia/commons/7/7c/Profile_avatar_placeholder_large.png",
        "name":"May Hampton",
        "specialization":"Cardeologist",
        "distance":"0.8",
        "rating":"5.0"
    }
]