[
    {
        "selected": false,
        "name": "Heart Disease"
    },
    {
        "selected": false,
        "name": "Stroke"
    },
    {
        "selected": false,
        "name": "Diabetes"
    },
    {
        "selected": false,
        "name": "Hypertension"
    },
    {
        "selected": false,
        "name": "High Cholestrol"
    },
    {
        "selected": false,
        "name": "Asthma"
    },
    {
        "selected": false,
        "name": "Typhoid"
    },
    {
        "selected": false,
        "name": "Cancer"
    },
    {
        "selected": false,
        "name": "Arthritis"
    },
    {
        "selected": false,
        "name": "Blood clots"
    }
]