{
  "project_info": {
    "project_number": "272191391624",
    "firebase_url": "https://vitahealth-86755.firebaseio.com",
    "project_id": "vitahealth-86755",
    "storage_bucket": "vitahealth-86755.appspot.com"
  },
  "client": [
    {
      "client_info": {
        "mobilesdk_app_id": "1:272191391624:android:e9f2455ed524b6a3",
        "android_client_info": {
          "package_name": "com.rnboilerplate"
        }
      },
      "oauth_client": [
        {
          "client_id": "272191391624-q112ide48k1srjo9dmt11o9e40dktq28.apps.googleusercontent.com",
          "client_type": 3
        }
      ],
      "api_key": [
        {
          "current_key": "AIzaSyAcNmpNOvVkrRfAD_8JqCosu0BsnrHZQUs"
        }
      ],
      "services": {
        "analytics_service": {
          "status": 1
        },
        "appinvite_service": {
          "status": 1,
          "other_platform_oauth_client": []
        },
        "ads_service": {
          "status": 2
        }
      }
    },
    {
      "client_info": {
        "mobilesdk_app_id": "1:272191391624:android:7da9f9882c4d4747",
        "android_client_info": {
          "package_name": "com.vitahealth"
        }
      },
      "oauth_client": [
        {
          "client_id": "272191391624-q112ide48k1srjo9dmt11o9e40dktq28.apps.googleusercontent.com",
          "client_type": 3
        }
      ],
      "api_key": [
        {
          "current_key": "AIzaSyAcNmpNOvVkrRfAD_8JqCosu0BsnrHZQUs"
        }
      ],
      "services": {
        "analytics_service": {
          "status": 1
        },
        "appinvite_service": {
          "status": 1,
          "other_platform_oauth_client": []
        },
        "ads_service": {
          "status": 2
        }
      }
    }
  ],
  "configuration_version": "1"
}
